{
	"variations": {
		"default": {
			"docs": {
				"variationName": "Default"
			},
			"settings": {
				"iconizerContextClass": "default",
				"iconizerClasses": false
			},
			"content": {}
		}
	}
}